…
We are given a population estimate at the intercept, a value for the
slope of each line (stored as “year”), standard error, statistic, and p
value. We have these numbers describing each of the models.

Let’s look at the range in p values. Ideally we want the highest p value
to still be lower than 0.005 in order to conclude that there is a
significant relationship between year and population estimate.

``` r
# Show the countries with the highest p values (least significance in year/population relationship)
pop_model_summary_unnested %>%
  arrange(desc(p.value))  # Sort by p value in descending order
```

    ## # A tibble: 284 × 6
    ## # Groups:   country [142]
    ##    country                term          estimate std.error statistic  p.value
    ##    <fct>                  <chr>            <dbl>     <dbl>     <dbl>    <dbl>
    ##  1 Bulgaria               (Intercept)   2621047. 21024180.     0.125 0.903   
    ##  2 Bulgaria               year             2810.    10621.     0.265 0.797   
    ##  3 Hungary                (Intercept)  -3340426. 11538153.    -0.290 0.778   
    ##  4 Hungary                year             6849.     5829.     1.18  0.267   
    ##  5 Czech Republic         (Intercept) -28050660.  6567510.    -4.27  0.00163 
    ##  6 Bosnia and Herzegovina (Intercept) -45997123. 10368505.    -4.44  0.00126 
    ##  7 Trinidad and Tobago    (Intercept) -14167018.  3163889.    -4.48  0.00118 
    ##  8 Trinidad and Tobago    year             7665.     1598.     4.80  0.000728
    ##  9 Bosnia and Herzegovina year            25165.     5238.     4.80  0.000719
    ## 10 Czech Republic         year            19215.     3318.     5.79  0.000175
    ## # ℹ 274 more rows
…
